{
    "project_logo": "app/images/York_Logo_YorkOrange.svg",
    "project_favicon": "favicon.png",
    "project_name": "York Style Kit",
    "project_url": null,
    "copyright_start_year": null,
    "client_name": null,
    "client_url": null,
    "creators": [
        {
            "name": null,
            "url": null
        }
    ],
    "theme": {
        "border_color": "#E0E6ED",
        "highlight_color": "#F9FAFC",
        "brand_color": "#00585C",
        "background_color": "#FFFFFF",
        "code_highlight_theme": "github",
        "override_code_highlight_bg": "#F9FAFC",
        "sample_dark_background": "#333333",
        "show_project_name": true,
        "show_version": true,
        "max_width": null,
        "titles": {
            "library_title": "",
            "pages_title": "Overview",
            "components_title": "Components"
        }
    },
    "assets": {
        "css": [
            "app/css/nowyork.css",
            "app/css/pattern-library.css"
        ],
        "js": [
            "app/js/core/bootstrppr.js",
            "https://cdnjs.cloudflare.com/ajax/libs/bootstrap-switch/3.3.4/js/bootstrap-switch.min.js"
        ]
    },
    "font_libraries": {
        "typekit_code": null,
        "typography_web_fonts": null,
        "google_web_fonts": null
    },
    "content": {
        "show_first_page_on_load": true,
        "title": "Overview",
        "pages": [
            {
                "name": "introduction",
                "title": "Introduction",
                "file": "./pages/intro.md"
            },
            {
                "name": "principles",
                "title": "Design Principles",
                "file": "./pages/principles.md"
            },
            {
                "name": "color",
                "title": "Color",
                "file": "./pages/color.md"
            },
            {
                "name": "icons",
                "title": "Icons",
                "file": "./pages/icons.md"
            },
            {
                "name": "typography",
                "title": "Typography",
                "file": "./pages/typography.md"
            },
            {
                "name": "layout",
                "title": "Layout",
                "file": "./pages/layout.md"
            },
            {
                "name": "errors",
                "title": "Errors",
                "file": "./pages/errors.md"
            },
            {
                "name": "confirmations",
                "title": "Confirmations",
                "file": "./pages/confirmations.md"
            },
            {
                "name": "help",
                "title": "Help & Tooltips",
                "file": "./pages/help.md"
            },
            {
                "name": "notifications",
                "title": "Notifications",
                "file": "./pages/notifications.md"
            },
            {
                "name": "empty",
                "title": "Empty State",
                "file": "./pages/empty.md"
            }
        ]
    },
    "groups": [
        {
            "name": "buttons",
            "title": "Buttons",
            "components": [
                {
                    "group": "buttons",
                    "name": "styles",
                    "title": "Styles"
                },
                {
                    "group": "buttons",
                    "name": "sizes",
                    "title": "Size Variations",
                    "width": "half"
                },
                {
                    "group": "buttons",
                    "name": "colors",
                    "title": "Color Variations"
                }
            ]
        },
        {
            "name": "links",
            "title": "Links",
            "components": [
                {
                    "group": "links",
                    "name": "button-links",
                    "title": "Button Links"
                },
                {
                    "group": "links",
                    "name": "text-links",
                    "title": "Text Links"
                }
            ]
        },
        {
            "name": "inputs",
            "title": "Inputs",
            "components": [
                {
                    "group": "inputs",
                    "name": "inputs",
                    "title": "Inputs",
                    "width": "half"
                },
                {
                    "group": "inputs",
                    "name": "dropdowns",
                    "title": "Dropdowns",
                    "width": "half"
                },
                {
                    "group": "inputs",
                    "name": "textareas",
                    "title": "Textareas",
                    "width": "half"
                },
                {
                    "group": "inputs",
                    "name": "checkboxes",
                    "title": "Checkboxes",
                    "width": "half"
                },
                {
                    "group": "inputs",
                    "name": "radios",
                    "title": "Radio Buttons",
                    "width": "half"
                },
                {
                    "group": "inputs",
                    "name": "select",
                    "title": "Selects",
                    "width": "half"
                }
            ]
        },
        {
            "name": "navigation",
            "title": "Navigation",
            "components": [
                {
                    "group": "navigation",
                    "name": "topnav",
                    "title": "Top Bar Navigation"
                },
                {
                    "group": "navigation",
                    "name": "pills",
                    "title": "Pills",
                    "width": "half"
                }
            ]
        },
        {
            "name": "pagination",
            "title": "Pagination",
            "components": [
                {
                    "group": "pagination",
                    "name": "pagination",
                    "title": "Pagination",
                    "width": "half"
                }
            ]
        },
        {
            "name": "progressbars",
            "title": "Progress Bars",
            "components": [
                {
                    "group": "progressbars",
                    "name": "progressbars",
                    "title": "Progress Bars"
                }
            ]
        },
        {
            "name": "labels",
            "title": "Labels",
            "components": [
                {
                    "group": "labels",
                    "name": "labels",
                    "title": "Labels"
                }
            ]
        },
        {
            "name": "tables",
            "title": "Tables",
            "components": [
                {
                    "group": "tables",
                    "name": "tables",
                    "title": "Tables"
                }
            ]
        },
        {
            "name": "modals",
            "title": "Modals",
            "components": [
                {
                    "group": "modals",
                    "name": "modals",
                    "title": "Modals"
                }
            ]
        }
    ],
    "version": "1.9.5"
}